1REM CARGORAMA
2REM BY Christopher Brown of Great Barford, Bedfordshire
3REM FROM Acorn Programs, Aug/Sept 1984 issue, pg 22
4REM ENTERED BY Rachel Wil Singh

10ON ERROR GOTO 20
20CLS
30GOSUB 410
40MODE 1
41*FX 200,2
50*FX 11,0
60VDU 23,240,126,126,126,126,126,126,60,24
70HS=0
80X=15:Y=10:S=0:D=0
90VDU23;8202;0;0;0;
100COLOUR 2
110PRINTTAB(RND(30),31)"*"
120PRINTTAB(RND(30),30)"*"
130FOR K=0 TO DS
140PRINTTAB(RND(30),30)"*"
150NEXT K
160COLOUR 1
170PRINTTAB(X,Y);CHR$(240);TAB(1,1);S
180SOUND1,-5,X,1
190S=S+1
200I$=INKEY$(10)
210IF I$="Q" D=-1
220IF I$="P" D=1
230X=X+D
240IF I$="@" S=S-80 : CLS
250LET D=0
260IF X>30 X=30
270IF X<1 X=1
280IF POINT(X*32+16,656)>0 GOTO 300
290GOTO 100
300PRINT TAB(X-1,Y)"<$>"
310IF S$="N" GOTO 330
320FOR I=1 TO 100:SOUND 0,-5,I,1:NEXT
330CLS
340PRINT TAB(5,5) "YOUR SCORE IS ";S
350IF S>HS THEN HS=S: INPUT "ENTER YOUR NAME " H$
360PRINT "     HIGH SCORE"
370PRINT "   ";HS;" BY ";H$
380GOSUB 530
390CLS
400GOTO 80
410PRINT
420PRINT "        ";
430PRINT "$$$ CASTEROIDS $$$"
440PRINT " BY "
450PRINT "CHRISTOPHER BROWN (C) 1984"
460PRINT
470PRINT " LEFT ~Q"
480PRINT " RIGHT ~P"
490PRINT " HELP ~@ BUT YOUR SCORE IS 80 LESS"
500PRINT "SOUND? (Y/N) ";: INPUT S$
510*FX 210,0
520IF S$="N" THEN *FX 210,1
530INPUT "DIFFICULTY (1 TO 30)" DS
540CLS
550RETURN
560VDU 23;8202;0;0;0;
