1REM LASER BATTLE
2REM BY C Fothergill of Gainsborough, Lincs
3REM FROM Acorn Programs, Aug/Sept 1984 issue, pg 26
4REM ENTERED BY Rachel Wil Singh, 2022

10REM *************************************
20REM *************************************
30REM VARIABLES
40REM X&Y   = BASE POSITION
50REM NX&NY = MISSILE POSITION
60REM T&G   = ENEMY SHIP (TARGET) POSITION
80REM LEV   = LEVEL OF DIFFICULTY
90REM R&RN  = THESE PASS ON LEV AS A RANDOM NUMBER INTO THE TARGETFIRE PROC
120REM F1,2,3,4 = FLAGS
130REM THE OTHER VARIABLES USED ARE SELF EXPLANATORY
150REM THE REMARKS CAN, OF COURSE, BE LEFT OUT OF THE PROGRAM.
170REM *************************************
180REM *************************************

190F3=0
200F4=0
210OLDSCORE=0
220TITLE=0:TITLE2=0
230NX=0:NY=0:T=1:G=5:LIFE=5:SCORE=0:EX=5
240VDU 23,173,0,0,240,254,240,0,0,0:VDU 23,174,0,30,158,255,158,30,0,0:VDU 23,175,8,8,8,8,8,28,28,62
250A$=CHR$174+CHR$173:B$=CHR$175
260MODE7:VDU 23;8202;0;0;0;:PROCTITLE:MODE2:VDU23;8202;0;0;0;:PROCTITLEB
270X=10:Y=25:PRINTTAB(X,Y);B$
280PRINTTAB(13,1)"Life";LIFE:PRINTTAB(1,1);"Score";SCORE
290F=0
180
300REM *************************************
310REM START OF MAIN LOOP
320REM *************************************

330REPEAT
340IF POINT(NX*64+32,1024-(NY-1)*32-15)=2 THEN PROCHIT
350PROCTARGET
360PROCLEFT
370PROCRIGHT
380PROCGUIDE
390PROCFIRE
400PROCTARGETFIRE

REM Adding some delay - Rachel
PROCDELAY(5)
410UNTIL FALSE
420REM *************************************
430REM END OF MAIN LOOP
440REM *************************************

450DEF PROCLEFT
460OLDPOS=X
470IF INKEY(-98) THEN X=X-1:IF X<=1 THEN X=1
480PRINTTAB(X+1,Y)" ":PRINTTAB(X,Y);B$
490ENDPROC

500REM *************************************
501REM *************************************

510DEF PROCRIGHT
520IF INKEY(-67) THEN X=X+1:IF X>=19 THEN X=19
530PRINTTAB(X-1,Y)" ":PRINTTAB(X,Y);B$
540ENDPROC

550REM *************************************
551REM *************************************

560DEF PROCFIRE
570IF NY<=2 THEN F=0:PRINTTAB(NX,NY)" "
580IF F=1 THEN NY=NY-1:COLOUR 1:PRINTTAB(NX,NY)"!":PRINTTAB(NX,NY+1)" ":COLOUR7:GOTO 600
590IF INKEY(-74) THEN F=1:NX=X:NY=Y:SOUND 1,-15,30,4:SOUND 1,-10,30,2
600ENDPROC

610REM *************************************
611REM *************************************

620DEF PROCTARGET
630T=T+1:IF T=19 THEN PRINTTAB(18,G)"   ":T=T+1
640IF G=Y THEN G=5
650PRINTTAB(T-1,G)"  ":COLOUR2:PRINTTAB(T,G);A$:COLOUR 7
660ENDPROC

670REM *************************************
671REM *************************************

680DEF PROCTARGETFIRE
690RN=RND(INT(R)): IF SCORE>500 THEN R=R-1: IF R<1 THEN RN=1
700IF RN=1 AND SCORE>50 THEN GCOLO0,1:MOVE(T+2)*64,850:DRAW OLDPOS*64,200:GCOL0,0:MOVE(T+2)*64,850:DRAW OLDPOS*64,200: SOUND 0, -7, 2, 2:GCOL0,7: IF OLDPOS=X THEN LIFE=LIFE-1:PRINTTAB(13,1)"Life ":PRINTTAB(13,1)"Life";LIFE
710IF SCORE=100 AND F3=0 THEN F3=1:PROCSETUP
720IF SCORE-OLDSCORE=100 AND SCORE>100 THEN PROCSETUP
730IF LIFE=0 THEN PROCGAMEEND
740ENDPROC

750REM *************************************
751REM *************************************

760DEF PROCGUIDE
770IF NX>=19 THEN NX=19
IF INKEY(-122) THEN NX=NX+1:PRINTTAB(NX-1,NY)" ":IF NX>=19 THEN NX=19
790IF INKEY(-26) THEN NX=NX-1:PRINTTAB(NX+1,NY)" ": IF NX<=1 THEN NX=1
800IF NY<=2 THEN NY=2
810ENDPROC

811REM *************************************
820REM *************************************

830DEF PROCHIT
840PRINTTAB(NX,NY);" "
850FOR N=1 TO 32
860COLOUR RND(INT(16)): PRINTTAB(T,G);A$:PROCDELAY(6)
870PRINTTAB(T,G)"    "
880IF F4=0 THEN PROCSOUND ELSE GOTO 890
890NEXT

900F4=0
910T=1
920F=0 : NX=0 : NY = 0 : COLOUR 7 : SCORE=SCORE+10 : PRINTTAB(1,1)"Score "; SCORE
930PROCDELAY(100)
940ENDPROC

950REM *************************************
951REM *************************************

960DEF PROCDELAY(TM)
970TIME=0:REPEAT UNTIL TIME=TM
ENDPROC

990REM *************************************
991REM *************************************

1000DEF PROCSETUP
1010*FX15,0
1020OLDSCORE=SCORE
1030LIFE=LIFE+EX
1040CLS
1050COLOUR 10:PRINTTAB(2,10)"YOU HAVE GAINED          EXTRA LIVES   "
1060COLOUR 7
1070PRINTTAB(5,19)"Hit Space"
1080PROCDELAY(100)
1090*FX15,0
1100REPEAT UNTIL GET=32 : CLS : PRINTTAB(1,1)"Score";SCORE : PRINTTAB(13,1)"Life"; LIFE
1110ENDPROC

1120REM *************************************
1121REM *************************************

1130DEF PROCTITLE
1140T$="   LASER ATTACK   " :INST$ = "Instructions   "
1150CLS
1160FOR N=35 TO 7STEP-1
1170TITLE=TITLE+1
1180PRINTTAB(N,3);LEFT$(T$,TITLE)
1190PROCDELAY(1)
1200NEXT

1210FOR N=35 TO 10STEP-1
1220TITLE2=TITLE2+1
1230PRINTTAB(N,5);LEFT$(INST$,TITLE2)
1240PROCDELAY(1)
1250NEXT

REM Having a delay at the title screen sucks. - Rachel
1260REM PROCDELAY(100)

REM I just formatted this to look at a little better, since it's hard to tell
REM how much whitespace to use in the printed magazine. - Rachel

PRINT "----------------------------------------"
1270PRINT "The object of the game is to hit the"
PRINT "enemy ship as it flies on its attack"
PRINT "run. For every hit you get ten points."
PRINT "However the enemy ship will fire back."
PRINT "The good news is that it won't fire back"
PRINT "immediately.. The bad news is that when"
PRINT "it does IT IS EXTREMELY ACCURATE."
PRINT "So keep on the move!"
1300PRINT "Every time you are hit you lose a life."
PRINT "When you score one 100 you gain extra."

1310PRINT:PRINTTAB(7);"(Press any key)"
1320REPEAT UNTIL GET
1330CLS

1340PRINT:PRINT:PRINT:PRINTTAB(5)CHR$135"SURVIVAL RATE"
1350PRINT:PRINTTAB(3)CHR$129"Level 1 ______ Easy"
1360PRINT:PRINTTAB(3)CHR$128"Level 2 ______ Not so easy"
1370PRINT:PRINTTAB(3)CHR$130"Level 3 ______ @*~$_?.. hard"
1380PRINT:PRINTTAB(3)CHR$131"Level 4 ______ Impossible"
1890PRINT:INPUTTAB(5)"Enter level number  " LEV:IF LEV<1 OR LEV>4 THEN GOTO 1330

1400IF LEV=1 THEN R=75
1410IF LEV=2 THEN R=25
1420IF LEV=3 THEN R=5
1430IF LEV=4 THEN R=2
1440ENDPROC

1450REM *************************************
1451REM *************************************

1460DEF PROCTITLEB

REM Cleaned this up a bit, too. - Rachel

PRINT "Enemy ship: ";A$
PRINT "Your base:  ";B$
PRINT
PRINT "MOVEMENT"
PRINT "Move base left:  Z"
PRINT "Move base right: X"
PRINT "Fire:            RETURN"
PRINT

PRINT "--------------------"
PRINT "To guide your"
PRINT "missile, use the"
PRINT "right and left"
PRINT "cursor keys."

1470REM PRINT:PRINT:PRINT:PRINT:COLOUR2:PRINTTAB(2);"Enemy Ship ";A$ :COLOUR 7:PRINT: PRINTTAB(2)"Your base   ";B$: COLOUR 4 : PRINT : PRINTTAB(2); "Base Left Z          Base Right X"
1480REM PRINT: COLOUR 5 : PRINTTAB(2);"Fire    RETURN"
1490REM COLOUR 6 : PRINT : PRINTTAB(2);"To guide your missile use the right and left cursor keys"
1500COLOUR 7
1510PRINT:PRINT:PRINTTAB(2)"(Press any key)"

1520REPEAT UNTIL GET
1530CLS
1540ENDPROC

1541REM *************************************
1550REM *************************************

1560DEF PROCGAMEEND
1570CLS

1580PRINT : PRINT : PRINT : PRINT : PRINT : PRINT : COLOUR1 : PRINTTAB(4)" GAME OVER " : COLOUR 6
1590*FX15,0
1600PRINT : PRINT : PRINT : PRINT : PRINTTAB(1);"Another game? Y/N "
1610PRINT : PRINT : INPUTTAB(8) Q$ : IF LEFT$(Q$,1)="Y" THEN RUN ELSE GOTO 1610

1620ENDPROC


1630DEFPROCSOUND
1640F4=1
1650SOUND 0, -9, 4, 16 : SOUND 0, -10, 4, 16 : SOUND 0, -12, 4, 16

1660ENDPROC



