1REM GARDEN TROUBLE
2REM BY Paul Radcliffe of Danbury, Essex 1984
3REM FROM Acorn Programs, Nov 1984 issue
REM PAGE 29
4REM ENTERED BY Rachel Wil Singh

REM CUSTOMIZE KEYBOARD CONTROLS - RACHEL
REM Original controls:
REM LEFT=Z(-98),    RIGHT=X(-67)
REM UP=:(??) DOWN=/(-92) or (-22)?

REM Left arrow=-26, Right arrow=-122,
REM Up arrow=-58, Down arrow =-42

KLeft=-26
KRight=-122
KUp=-58
KDown=-42

9*FX 14,6
10W=2700
20Y=0
30G=0
40MODE 2
41SCORE=0
50PROCgraphics
60PROCscreen
70Z=1:X=19
80O1=13 : P1=19
90O2=14 : P2=9
100TIME=0


110COLOUR 4 : FOR N=1 TO 10 : PRINTTAB(10,20-N);CHR$235 : NEXT N
120COLOUR 4 : FOR N=1 TO 3 : PRINTTAB(15,10-N);CHR$235 : NEXT N
130COLOUR 5 : PRINTTAB(Z,X-1);CHR$232
140COLOUR 6 : PRINTTAB(Z,X);CHR$233
150COLOUR 1 : PRINTTAB(O1,P1);CHR$231

160IF TIME>=W THEN PROCdead
170PRINTTAB(0,1);"TIME=";TIME/100;"SECS"
175COLOUR 4 : PRINTTAB(13,1);"Score=";SCORE
180COLOUR 3 : PRINTTAB(01,P1-1);CHR$230
190COLOUR 2 : PRINTTAB(O2,P2);CHR$231
200COLOUR 6 : PRINTTAB(O2,P2-1);CHR$230
221SOUND 1,-15,4,1
222SOUND 1,-15,45,1

270IF INKEY(KLeft) THEN PRINTTAB(Z,X-1);" "
271IF INKEY(KLeft) THEN PRINTTAB(Z,X);" "
272IF INKEY(KLeft) THEN Z=Z-1
280IF INKEY(KRight) THEN PRINTTAB(Z,X);" "
282IF INKEY(KRight) THEN Z=Z+1
290IF Z<=0 THEN Z=1
300IF Z>=16 AND X=19 THEN Z=15
310IF Z>=19 AND X=9 THEN Z=18
320R=RND(5)

330IF R=1 THEN PRINTTAB(O1,P1-1);" "
331IF R=1 THEN PRINTTAB(O1,P1);" "
332IF R=1 THEN O1=O1+1
340IF R=2 THEN PRINTTAB(O1,P1-1);" "
341IF 4=2 THEN PRINTTAB(O1,P1);" "
342IF R=2 THEN O1=O1-1
350IF O1<=0 THEN O1=1
360IF O1>=16 THEN O1=15
370IF R=1 THEN PRINTTAB(O2,P2-1);" "
371IF R=1 THEN PRINTTAB(O2,P2);" "
372IF R=1 THEN O2=O2-1
380IF R=2 THEN PRINTTAB(O2,P2-1);" "
381IF R=2 THEN PRINTTAB(O2,P2);" "
382IF R=2 THEN O2=O2+1
390IF O2<=0 THEN O2=1
400IF O2>=19 THEN O2=18
410IF O1=Z AND P1=X THEN PROCdead
420IF O2=Z AND P2=X THEN PROCdead
430IF INKEY(KUp) THEN PROCup
440IF INKEY(KDown) THEN PROCdown

450IF Z<12 AND X=6 THEN Z=12
460IF Z>15 AND X=6 THEN Z=15
470IF Z=13 AND X=6 THEN SOUND 1,-15,5,2 : IF Z=13 AND X=6 THEN LET Y=1
480IF Z=15 AND X=19 THEN G=1
490IF G=1 AND Y=1 THEN GOTO 870
500GOTO 110

510DEF PROCgraphics
520VDU 23,230,34,20,28,42,62,34,28,28
530VDU 23,231,28,28,28,62,93,28,34,65
540REM man
550VDU 23,232,60,52,63,244,244,60,90,153
560VDU 23,233,24,60,126,102,102,102,231,0

570REM floor
580VDU 23,234,255,255,231,195,231,255,255,255

590REM ladder
600VDU 23,235,255,195,255,195,255,195,255,195

610REM flower
620VDU 23,236,0,16,40,16,16,146,84,56

630REM watering can
640VDU 23,237,0,0,28,254,28,0,0,0

650ENDPROC

660DEF PROCscreen
661PRINTTAB(4,22);"GARDEN TROUBLE"
662PRINTTAB(3,24);"By Paul Radcliffe"
670VDU 23;8202;0;0;0;
680COLOUR 1 : FOR N=1 TO 19 : PRINTTAB(N,20);CHR$234 : NEXT N
690COLOUR 1 : FOR N=1 TO 19 : PRINTTAB(N,10);CHR$234 : NEXT N
700COLOUR 2 : PRINTTAB(16,19);CHR$236
710COLOUR 13 : PRINTTAB(13,6);CHR$237
720FOR N=1 TO 3 : PRINTTAB(11+N,7);CHR$234 : NEXT N
730ENDPROC

740DEF PROCdead
750CLS
760COLOUR 1 : PRINTTAB(5,10);"YOU ARE DEAD"
770FOR N=40 TO 1 STEP -1 : SOUND 1,-15,N+5,1 : SOUND 2,-15,N+10,1 : SOUND 3,-15,N+30,1 : NEXT N
780CLEAR : RUN

790DEF PROCup
800IF Z=10 AND X=19 THEN X=X-10
810IF Z=15 AND X=9 THEN X=X-3
820ENDPROC

830DEF PROCdown
831PRINTTAB(Z,X);" "
832PRINTTAB(Z,X-1);" "
840IF Z=10 AND X=9 THEN X=X+10
850IF Z=15 AND X=6 THEN X=X+3
860ENDPROC

870REM new level
875SCORE=SCORE+1
876G=0 : Y=0
877COLOUR 13 : PRINTTAB(13,6);CHR$2237
878PRINTTAB(O1,P1);" " : PRINTTAB(O1,P1-1);" "
879PRINTTAB(O2,P2);" " : PRINTTAB(O2,P2-1);" "
880SOUND 1,-15,1,1
888FOR N=1 TO 80 STEP +3 : SOUND 1,-15,N+5,1 : SOUND 2,-25,N+10,1 : SOUND 3,-15,N+30,1 : NEXT N
890GOTO 70



REM These are my helper procs - Rachel
DEF PROCrachtimer
FOR RT=1 TO 1000000 : NEXT RT
ENDPROC

DEF PROCrachspace
PRINT "PRESS SPACE"
REPEAT UNTIL GET=32
ENDPROC

