1REM CATCHER
2REM BY Alex Segre of London NW5
3REM FROM Acorn Programs, Feb/March 1984 issue
REM PAGE 29
4REM ENTERED BY Rachel Wil Singh

KLeft$="A"
KRight$="D"
KUp$="W"
KDown$="S"


10HIGH=0
20MODE 2
30PROCinit
40PROCborders
50PROCblobs
60MOVE X,Y

70A$=INKEY$(0)
80IF A$="" THEN PROCcontinue
90IF A$=KLeft$ THEN Q=1
100IF A$=KRight$ THEN Q=2
110IF A$=KDown$ THEN Q=3
120IF A$=KUp$ THEN Q=4

130DRAW X,Y

140IF Q=1 AND POINT(X-8,Y)=3 THEN PROCfinish
150IF Q=2 AND POINT(X+8,Y)=3 THEN PROCfinish
160IF Q=3 AND POINT(X,Y-10)=3 THEN PROCfinish
170IF Q=4 AND POINT(X,Y+10)=3 THEN PROCfinish

180IF X<0 OR X>1279 OR Y<0 OR Y>1023 THEN PROCfinish

190IF POINT(X+10,Y)=6 OR POINT(X-10,Y)=6 THEN PROCblobs

200GOTO 60

210DEF PROCcontinue
220IF Q=1 THEN X=X-10
230IF Q=2 THEN X=X+10
240IF Q=3 THEN Y=Y-10
250IF Q=4 THEN Y=Y+10
260ENDPROC

270DEF PROCborders
280GCOL 0,1
290MOVE 0,0
DRAW 0,1023
310DRAW 1279,1023
320DRAW 1279,0
330DRAW 0,0
340ENDPROC

350DEF PROCblobs
360IF SCORE<>-1 THEN SOUND 1,-15,150,1
370SCORE=SCORE+1
380VDU 5
390GCOL 0,0
400MOVE A,B
410VDU 239
420GCOL 0,6
430A=RND(1279)
440B=RND(1023)

450IF A<100 OR A>1200 OR B<100 OR B>900 THEN GOTO 430

360MOVE A,B

470IF SCORE<3 THEN  VDU 240
480IF SCORE>2 AND SCORE<6 THEN VDU 241
490IF SCORE>5 AND SCORE<9 THEN VDU 242
500IF SCORE>5 THEN VDU 243

510GCOL 0,3
520VDU 4
530ENDPROC

540DEF PROCfinish
550SOUND 0,-15,50,5
560REM FOR T=1 TO 2500
570REM NEXT T
PROCrachtimer
580COLOUR 5
590CLS
600PRINTTAB(2,12);"YOU GOT ";SCORE;" THING";
610IF SCORE<>1 THEN PRINT "S"
620IF SCORE>HIGH THEN HIGH=SCORE
630PRINTTAB(2,15);"HIGH SCORE....";HIGH
640*FX 15,0
PROCrachtimer
CLS
670GOTO 30

680DEF PROCinit
690A=0
700B=0
710SCORE=-1
720*FX 11,8
730VDU 23;8202;0;0;0;
740Q=1
750X=700
760Y=500
770VDU 23,239,255,255,255,255,255,255,255,255
780VDU 23,240,24,60,126,255,255,126,60,24
790VDU 23,241,65,127,93,127,99,62,28,0
800VDU 23,242,99,99,28,28,72,92,92,124
810VDU 23,243,71,122,122,50,250,254,124,0
820ENDPROC




DEF PROCrachtimer
FOR RT=1 TO 10000000 : NEXT RT
ENDPROC

