1REM CRAZY CHASE
2REM BY ???
3REM FROM Acorn Programs, Feb/March 1984 issue
REM PAGE 38
4REM ENTERED BY Rachel Wil Singh

KLeft$="A"
KRight$="D"
KUp$="W"
KDown$="S"

10MODE 5
20VDU 23;8202;0;0;0
30A=5 : B=A : C=15 : D=C
40FOR T=1 TO 100
50GOSUB 270

60PRINTTAB(C,D);CHR$(240)
70PRINTTAB(A,B);CHR$(241)
80LET G=RND(10) : LET H=RND(10)

90IF G<5 THEN LET C=C+1
100IF G>5 THEN LET C=C-1
110IF H<5 THEN LET D=D+1
120IF H>5 THEN LET D=D-1

130LET R$=INKEY$(2000)
140IF R$=KUp$ THEN LET B=B-1
150IF R$=KDown$ THEN LET B=B+1
IF R$=KLeft$ THEN LET A=A-1
IF R$=KRight$ THEN LET A=A+1

180IF C<0 OR C>20 THEN LET C=10

190IF D<0 OR D>30 THEN LET D=15

200IF A=C AND B=D THEN CLS : PRINT;"YOU DID IT" : END

210IF A<0 OR A>20 THEN LET A=4

220IF B<0 OR B>30 THEN LET B=7

230NEXT T

240CLS

250PRINTTAB(0,1);"YOU FAILED....COMPLETELY"
260END

270VDU 23,241,255,255,153,153,255,255,255,255
280VDU 23,240,170,85,170,85,170,85,170,85
290CLS
300RETURN

