1REM STAR GATE
2REM BY ???
3REM FROM Acorn Programs, Feb/March 1984 issue
REM PAGE 20
4REM ENTERED BY Rachel Wil Singh

KUp$="W"
KDown$="S"

REM SHIP X COORDINATE IS A, SHIP Y COORDINATE IS B
REM D IS PLAYER SCORE
REM S IS LOCATION OF HOLE IN WALL
REM Z IS THE SCREEN #
REM I IS THE TILE # ON A SCREEN

S=0

10MODE 5
20VDU 23;8202;0;0;0
30LET D=0
40LET B=0
50FOR Z=1 TO 20
60IF Z=1 THEN GOSUB 280
70IF B<>0 THEN CLS : GOSUB 280
80REM PRINTS SPACE SHIP
90VDU 23,241,24,60,126,255,219,219,219,219
REM PRINT SCORE
100B=10 : A=2
110FOR I=1 TO 19

PRINTTAB(0,0);"SCORE=";D
PRINTTAB(0,1);"GATE=";S;" "
PRINTTAB(0,2);"Y=";B;" "


120PRINT TAB((A-1),(B-1));" "
130PRINT TAB((A-1),B);" ";CHR$241
140PRINT TAB(A-1,B+1);" "
150REM MOVES SHIP
160LET G$=INKEY$(20)
170IF G$=KDown$ THEN LET B=B+1
180IF G$=KUp$ THEN LET B=B-1
190LET A=A+1

REM IF YOU'RE AT THE WALL AND NOT IN THE HOLE, THEN GO
REM TO THE NEXT SCREEN?
200IF A=19 AND B<>S AND B<>S+1 AND Z<>20 THEN NEXT Z

REM IF YOU'RE ON THE LAST LEVEL (20), THEN END THE GAME.
210IF A=19 AND B<>S AND B<>S+1 AND Z=20 THEN GOTO 250

REM OTHERWISE YOU  HIT THE HOLE IN THE WALL, SO YOU GET A POINT
220IF B=20 THEN LET D=D+1

230NEXT I
240NEXT Z

250CLS

260PRINT "YOUR SCORE IS ";D
270END

REM SET UP NEXT SCREEN
280GCOL 0,1

290VDU 23,240,255,255,255,255,255,255,255,255

300FOR Q=1 TO 20
310LET F=RND(20) : LET G=RND(32)
320PRINT TAB(F,G);"*"
330NEXT Q

340FOR X=1 TO 30
350PRINT TAB(19,X);CHR$(240)
360NEXT X

370LET S=RND(30)
380PRINTTAB(19,S);" "
390PRINTTAB(19,(S+1));" "
400RETURN

