1REM DUEL
2REM BY ???
3REM FROM Acorn Programs, Dec 1983/Jan 1984 issue
REM PAGE 18
4REM ENTERED BY Rachel Wil Singh


5REM * TO SPEED THE GAME UP
6REM * CHANGE 'S' AT LINE TEN

10MODE 7 : PRINT : Q=0 : T=0 : W=0 : S=140000000 : P=0
REM ADDING THIS FOR MODERN COMPY, COUNTDOWN TIMER
C=1000000
20PRINTTAB(11);CHR$141;CHR$131;"*** DUEL ***"
25PRINTTAB(11);CHR$141;CHR$131;"*** DUEL ***"

30PRINT : IF P=1 THEN 140
40PRINT "THIS GAME WILL TEST YOUR REFLEXES WHEN"
50PRINT "YOU DUEL WITH ONE OF THE MOST FAMOUS "
60PRINT "DUELISTS IN THE WORLD, YOUR COMPUTER!!"
70PRINT
80PRINT "KEEP YOUR FINGER ON THE ('F') KEY WHEN"
90PRINT "YOU ARE READY TO FIRE, JUST PRESS IT."
100PRINT : PRINT "DON'T FIRE BEFORE THE COUNT OF TEN AND"
110PRINT "YOU SEE A STAR (*) ON THE VIDEO - THAT"
115PRINT "WOULD B E CHEATING."

120PRINT : PRINT "A TOTAL OF TEN ROUNDS WILL BE RUN, THE"
125PRINT "ONE COMING UP WITH THE MOST HITS"
130PRINT "WILL BE THE WINNER."
135PRINT : PRINT "(NOTE: AS THE ROUNDS BECOME GREATER THE COMPUTER WILL FIRE FASTER)."
140PRINT : PRINT "    PRESS RETURN TO BEGIN";
145INPUT X

150CLS : PRINT

160PRINT "START YOUR PACES...."

170REM COUNT PACES
180FOR M=1 TO 10
190PRINTTAB(19);M
200FOR N=1 TO C : NEXT N
210Z$=INKEY$(0)
IF Z$="F" THEN PROCCHEAT : GOTO 410
230NEXT M
240REM SET STAR
250M=INT(RND(30)+1)
260FOR J=1 TO 500 : NEXT J
270PRINT : PRINT : PRINT : PRINT
275Z$=INKEY$(0) : IF Z$="F" THEN PROCCHEAT : GOTO 410
280PRINTTAB(X);"*"

290REM SET UP SPEED FOR COMPUTER SHOT
300FOR I=1 TO S : NEXT I
310Y$=INKEY$(0)
320IF Y$<>"F" THEN 340
330GOTO 380

340CLS : PRINT
350PRINTTAB(8,3);CHR$(141);CHR$131;"TOO SLOW SUCKER !!" : PRINTTAB(8,4);CHR$141;CHR$131;"TOO SLOW SUCKER !!"
360PRINTTAB(10,11) "I JUST SHOT YA !!"
365Q=Q+1
370GOTO 410
380CLS : PRINT

390PRINTTAB(2,3);CHR$141;CHR$134;"O U C H !!" : PRINTTAB(2,4);CHR$141;CHR$134;"O U C H !!"

400PRINTTAB(0,11)"GOT ME. SCRATCH ONE INTEGRATED CIRCUIT!" : W=W+1

405IF W>4 THEN PRINTTAB(10) "I'M GETTING WEAKER !"

410PRINT : T=T+1 : IF T=10 THEN 440

420PRINTTAB(8,19);"THAT'S ROUND NUMBER ";T
430IF T<10 PRINT : PRINTTAB(10)"ONLY ";10-T;" MORE TO GO." : S=S-10 : GOTO 140

440PRINTTAB(9)"THAT'S ";T;" ROUNDS !!"

460IF Q>W THEN 490
470IF W>Q THEN 520
480IF Q=W THEN 550

485REM FINAL MESSAGES

490PRINT : PRINT "  LOOKS LIKE I WON THE BETTER OF ";T
500PRINT " ROUNDS. WITH A TOTAL OF ";Q
510GOTO 640

520PRINT : PRINT " WELL YOU'RE FASTER THAN YOUR COMPUTER."
530PRINT "YOU WON THE ";T;" ROUNDS, WIHT A TOTAL OF ";W
540GOTO 640

550PRINT : PRINT " SO WE'RE ABOUT EVEN WITH THE REFLEXES."
560PRINT " YOU HAD ";W;" AND I HAD ";Q;" NOT BAD !!"
570GOTO 640

575DEF PROCCHEAT
580FOR I=1 TO 300 : NEXT I : CLS : PRINT : PRINT
590PRINTTAB(9,3);CHR$141;CHR$129;"OKAY RESTLESS !!" : PRINTTAB(9,4);CHR$141;CHR$129;"OKAY RESTLESS !!"

600PRINTTAB(3,9) "NEITHER ONE OF US GOT THIS ROUND."
610PRINT : PRINT " YOU LOSE A ROUND - FOR SHOOTING ME"
620PRINT : PRINT " IN THE BACK. DID YOU SEE A STAR ?"
630W=W-1 : ENDPROC

640PRINT : PRINT : PRINT " WOULD YOU LIKE TO TRY YOUR REFLEXES"
650PRINT "AGAIN, BY GOING ";T;" MORE ROUNDS? (Y/N)";
660INPUT A$
670IF A$="Y" THEN P=1 : GOTO 10

680PRINT
690PRINT " GETTING TIRED OF SHOOTING AT A STAR..."
700END













