1REM REACT
2REM BY ???
3REM FROM Acorn Programs, Dec 1983/Jan 1984 issue
REM PAGE 31
4REM ENTERED BY Rachel Wil Singh


MODE 7
50PRINT '
60PRINT "THIS IS A REACTION TEST, WHICH WILL"
70PRINT "IMPROVE YOUR TYPING SKILLS."
80PRINT "A LARGE LETTER WILL APPEAR AT THE"
90PRINT "CENTER OF THE SCREEN AND WHEN YOU"
100PRINT "SEE IT, PRESS THAT KEY."
110PRINT
120PRINT "YOUR SCORE AFTER 20 TRIES WILL BE"
130PRINT "DISPLAYED AT THE BOTTOM OF THE SCREEN."
140PRINT
150INPUT "ARE YOU READY",A$

160TIME=0
170C=0
180D=0

190REPEAT
200T%=TIME
L=RND(26)+64
220PRINTTAB(14,16);CHR$(141);CHR$(129);CHR$(L)
230PRINTTAB(14,17);CHR$(141);CHR$(129);CHR$(L)
240IF INKEY$(1)<>CHR$(L) THEN 240
250D=D+TIME-T%
260C=C+1
270UNTIL C=20

280PRINT
290PRINT "YOUR REACTION TIME IS "
300PRINT D/2000;" SECONDS PER WORD"
310PRINT

320INPUT "ANOTHER GO",ans$
IF LEFT$(ans$,1)="Y" THEN 40 ELSE END


